<?xml version="1.0" encoding="utf-8"?>
<!-- Generator: Adobe Illustrator 20.1.0, SVG Export Plug-In . SVG Version: 6.00 Build 0)  -->
<svg version="1.1" id="Layer_1" xmlns="http://www.w3.org/2000/svg" xmlns:xlink="http://www.w3.org/1999/xlink" x="0px" y="0px"
	 viewBox="0 0 800 800" style="enable-background:new 0 0 800 800;" xml:space="preserve">
<style type="text/css">
	.st0{fill:#FFFFFF;}
</style>
<g>
	<path class="st0" d="M757.2,64.3c-3-7.4-11.5-10.9-18.8-7.8C622.5,104.3,506.5,152,390.6,199.8c-7.4,3-10.9,11.4-7.8,18.8
		c2.3,5.6,7.7,8.9,13.3,8.9c1.8,0,3.7-0.4,5.5-1.1c116-47.8,231.9-95.5,347.9-143.3C756.7,80.1,760.2,71.6,757.2,64.3z"/>
	<path class="st0" d="M285.1,258.8c-3-7.4-11.4-10.9-18.8-7.8L50.6,339.8c-7.4,3-10.9,11.5-7.8,18.8c2.3,5.6,7.7,8.9,13.3,8.9
		c1.8,0,3.7-0.3,5.5-1.1l215.7-88.8C284.6,274.6,288.1,266.2,285.1,258.8z"/>
	<path class="st0" d="M326.6,288.5h53.8v79.1c0,8,6.5,14.4,14.4,14.4c8,0,14.4-6.5,14.4-14.4v-90.9c0-0.9-0.1-1.8-0.3-2.6
		c0,0,0,0,0,0c0-8-6.4-14.4-14.4-14.4H341v-79.4h53.8c8,0,14.4-6.4,14.4-14.4s-6.5-14.4-14.4-14.4h-68.2c-8,0-14.4,6.4-14.4,14.4
		v108.2C312.2,282,318.6,288.5,326.6,288.5z"/>
	<path class="st0" d="M598.1,401.3H191.7c-26.5,0-48.1,21.6-48.1,48.1v150.2c0,30.9,55,145,87.9,145h342.7
		c33.8,0,70.5-107.4,72-138.4c2-43.7,0.1-152.5,0-156.9C646.2,422.9,624.6,401.3,598.1,401.3z M617.4,605
		c-1.4,30.1-32.1,100.8-45.2,110.9H233.3c-15.9-9.9-60.9-91.1-60.9-116.2V449.4c0-10.6,8.6-19.3,19.3-19.3h406.4
		c10.6,0,19.3,8.6,19.3,19.5C617.4,450.8,619.3,562.1,617.4,605z"/>
	<path class="st0" d="M383.6,602.1h32.8c23.9,0,43.4-19.5,43.4-43.4v-39.6c0-23.9-19.5-43.4-43.4-43.4h-32.8
		c-23.9,0-43.4,19.5-43.4,43.4v39.6C340.2,582.7,359.7,602.1,383.6,602.1z M369.1,519.1c0-8,6.5-14.6,14.5-14.6h32.8
		c8,0,14.6,6.5,14.6,14.6v39.6c0,8-6.5,14.5-14.6,14.5h-32.8c-8,0-14.5-6.5-14.5-14.5V519.1z"/>
	<g>
		<path class="st0" d="M250.4,602.1h32.8c23.9,0,43.4-19.5,43.4-43.4v-39.6c0-23.9-19.5-43.4-43.4-43.4h-32.8
			c-23.9,0-43.4,19.5-43.4,43.4v39.6C207.1,582.7,226.5,602.1,250.4,602.1z M235.9,519.1c0-8,6.5-14.6,14.6-14.6h32.8
			c8,0,14.6,6.5,14.6,14.6v39.6c0,8-6.5,14.5-14.6,14.5h-32.8c-8,0-14.6-6.5-14.6-14.5L235.9,519.1L235.9,519.1z"/>
		<path class="st0" d="M549.6,475.8h-32.8c-23.9,0-43.4,19.5-43.4,43.4v39.6c0,23.9,19.5,43.4,43.4,43.4h32.8
			c23.9,0,43.4-19.5,43.4-43.4v-39.6C592.9,495.2,573.5,475.8,549.6,475.8z M564.1,558.8c0,8-6.5,14.5-14.5,14.5h-32.8
			c-8,0-14.5-6.5-14.5-14.5v-39.6c0-8,6.5-14.6,14.5-14.6h32.8c8,0,14.5,6.5,14.5,14.6L564.1,558.8L564.1,558.8z"/>
	</g>
	<path class="st0" d="M562.8,624.5l-337.6-0.8c0,0,0,0,0,0c-7.9,0-14.4,6.4-14.4,14.4c0,8,6.4,14.4,14.4,14.4l337.6,0.8c0,0,0,0,0,0
		c7.9,0,14.4-6.4,14.4-14.4C577.2,631,570.8,624.5,562.8,624.5z"/>
</g>
</svg>
